<?xml version="1.0" encoding="UTF-8" standalone="no"?>
<!-- Created with Inkscape (http://www.inkscape.org/) -->

<svg
   xmlns:dc="http://purl.org/dc/elements/1.1/"
   xmlns:cc="http://creativecommons.org/ns#"
   xmlns:rdf="http://www.w3.org/1999/02/22-rdf-syntax-ns#"
   xmlns:svg="http://www.w3.org/2000/svg"
   xmlns="http://www.w3.org/2000/svg"
   xmlns:sodipodi="http://sodipodi.sourceforge.net/DTD/sodipodi-0.dtd"
   xmlns:inkscape="http://www.inkscape.org/namespaces/inkscape"
   id="svg2"
   version="1.1"
   inkscape:version="0.91 r13725"
   xml:space="preserve"
   width="1000"
   height="1000"
   viewBox="0 0 1000 1000"
   sodipodi:docname="main_image.svg"><metadata
     id="metadata8"><rdf:RDF><cc:Work
         rdf:about=""><dc:format>image/svg+xml</dc:format><dc:type
           rdf:resource="http://purl.org/dc/dcmitype/StillImage" /><dc:title></dc:title></cc:Work></rdf:RDF></metadata><defs
     id="defs6"><radialGradient
       fx="0"
       fy="0"
       cx="0"
       cy="0"
       r="1"
       gradientUnits="userSpaceOnUse"
       gradientTransform="matrix(400,0,0,-400,400,400)"
       spreadMethod="pad"
       id="radialGradient24"><stop
         style="stop-opacity:1;stop-color:#4d4d4d"
         offset="0"
         id="stop26" /><stop
         style="stop-opacity:1;stop-color:#333333"
         offset="1"
         id="stop28" /></radialGradient><clipPath
       clipPathUnits="userSpaceOnUse"
       id="clipPath36"><path
         d="M 0,800 800,800 800,0 0,0 0,800 Z"
         id="path38"
         inkscape:connector-curvature="0" /></clipPath></defs><sodipodi:namedview
     pagecolor="#ffffff"
     bordercolor="#666666"
     borderopacity="1"
     objecttolerance="10"
     gridtolerance="10"
     guidetolerance="10"
     inkscape:pageopacity="0"
     inkscape:pageshadow="2"
     inkscape:window-width="1920"
     inkscape:window-height="1018"
     id="namedview4"
     showgrid="false"
     inkscape:zoom="0.944"
     inkscape:cx="504.98829"
     inkscape:cy="625.77462"
     inkscape:window-x="-8"
     inkscape:window-y="-8"
     inkscape:window-maximized="1"
     inkscape:current-layer="g10" /><g
     id="g10"
     inkscape:groupmode="layer"
     inkscape:label="13"
     transform="matrix(1.25,0,0,-1.25,0,1000)"><g
       id="g20"><g
         id="g22"><path
           d="M 0,0 800,0 800,800 0,800 0,0 Z"
           style="fill:url(#radialGradient24);stroke:none"
           id="path30"
           inkscape:connector-curvature="0" /></g></g><g
       id="g40"
       transform="translate(283.3491,390.2217)"><path
         d="m 0,0 c 0,-27.628 17.426,-60.655 35.556,-60.655 l 173.319,0 c 18.131,0 36.675,33.027 36.675,60.655"
         style="fill:#ff9600;fill-opacity:1;fill-rule:nonzero;stroke:none"
         id="path42"
         inkscape:connector-curvature="0" /></g><g
       id="g44"
       transform="translate(278.4551,382.4326)"><path
         d="M 0,0 -15.468,1.181 -11.083,-22.537 7.804,-24.731 0,0 Z"
         style="fill:#f4f0e4;fill-opacity:1;fill-rule:nonzero;stroke:none"
         id="path46"
         inkscape:connector-curvature="0" /></g><g
       id="g48"
       transform="translate(257.3057,384.75)"><path
         d="m 0,0 5.471,-22.979 c 0,0 -50.648,13.587 -82.069,28.451 -17.723,8.382 -36.548,15.1 -77.91,8.971 0,0 -11.6,9.411 -12.257,17.51 0,0 57.576,13.395 99.796,-8.099 C -51.129,15.792 -24.73,2.845 0,0"
         style="fill:#ff9600;fill-opacity:1;fill-rule:nonzero;stroke:none"
         id="path50"
         inkscape:connector-curvature="0" /></g><g
       id="g52"
       transform="translate(516.4219,370.6338)"><path
         d="m 0,0 c 0,0 -5.837,-51.613 -61.276,-31.187 0,0 47.27,-12.913 61.276,31.187"
         style="fill:#f4f0e4;fill-opacity:1;fill-rule:nonzero;stroke:none"
         id="path54"
         inkscape:connector-curvature="0" /></g><g
       id="g56"
       transform="translate(322.083,384.75)"><path
         d="m 0,0 c 0,0 -24.982,5.363 -30.346,0 -2.571,-2.569 0,-9.775 3.501,-14.116 0,0 -4.669,10.395 26.845,14.116"
         style="fill:#f4f0e4;fill-opacity:1;fill-rule:nonzero;stroke:none"
         id="path58"
         inkscape:connector-curvature="0" /></g><g
       id="g60"
       transform="translate(419.2666,597.8379)"><path
         d="M 0,0 C 0,0 3.729,8.613 -4.185,12.027 -4.185,12.027 10.286,7.876 0,0 m -7.827,15.936 c -2.569,8.227 -11.526,5.42 -11.526,5.42 8.909,9.408 11.526,-5.42 11.526,-5.42 m 11.508,7.512 c -7.829,8.532 -18.15,12.213 -22.59,7.729 -6.068,-6.124 -3.939,-11.579 0.992,-17.719 L -28.594,3.771 C -29.411,3.03 -29.474,1.768 -28.73,0.95 l 6.989,-7.703 C -21,-7.57 -19.737,-7.63 -18.922,-6.89 l 10.758,9.761 c 6.018,-5.697 11.82,-8.683 17.61,-2.591 4.349,4.573 2.063,14.636 -5.765,23.168"
         style="fill:#ffffff;fill-opacity:1;fill-rule:nonzero;stroke:none"
         id="path62"
         inkscape:connector-curvature="0" /></g><g
       id="g64"
       transform="translate(446.8291,536.5967)"><path
         d="M 0,0 C 7.737,0.25 10.982,9.484 10.982,9.484 11.73,-3.495 -7.738,-0.25 0,0 m 4.186,31.008 c -1.22,2.172 3.426,7.289 3.426,7.289 -2.745,1.545 -6.739,-6.036 -6.739,-6.036 -5.49,5.241 -12.978,5.989 -12.978,5.989 5.743,-2.687 7.249,-4.868 7.507,-6.221 -8.949,-1.156 -15.87,-8.787 -15.87,-18.051 0,-10.063 8.159,-18.222 18.222,-18.222 10.061,0 18.22,8.159 18.22,18.222 0,7.794 -4.905,14.428 -11.788,17.03"
         style="fill:#ffffff;fill-opacity:1;fill-rule:nonzero;stroke:none"
         id="path66"
         inkscape:connector-curvature="0" /></g><g
       id="g68"
       transform="translate(408.1172,657.5605)"><path
         d="m 0,0 c 0,0 7.738,2.746 14.478,-1.997 0,0 -5.446,1.74 -14.478,1.997 m -10.379,-10.483 c -1.46,0 -2.642,1.31 -2.642,2.928 0,1.617 1.182,2.928 2.642,2.928 1.46,0 2.642,-1.311 2.642,-2.928 0,-1.618 -1.182,-2.928 -2.642,-2.928 M 3.245,3.744 c -9.236,0 -16.724,-4.862 -16.724,-10.857 0,-5.996 7.488,-10.858 16.724,-10.858 9.235,0 16.723,4.862 16.723,10.858 0,5.995 -7.488,10.857 -16.723,10.857"
         style="fill:#ffffff;fill-opacity:1;fill-rule:nonzero;stroke:none"
         id="path70"
         inkscape:connector-curvature="0" /></g><g
       id="g72"
       transform="translate(394.8389,485.3115)"><path
         d="m 0,0 c 0,0 3.271,-9.232 4.741,-12.638 3.958,-9.174 24.212,-30.451 2.996,-61.151 0,0 -0.8,-4.743 8.71,3.245 0,0 33.525,19.9 -0.395,78.056 C 16.052,7.512 9.177,-0.365 0,0"
         style="fill:#ffffff;fill-opacity:1;fill-rule:nonzero;stroke:none"
         id="path74"
         inkscape:connector-curvature="0" /></g><g
       id="g76"
       transform="translate(394.4932,486.3223)"><path
         d="m 0,0 c 0,0 8.236,-1.264 15.762,7.512 0,0 -2.128,3.32 -9.449,0.702 0,0 -3.494,7.444 9.449,16.098 C 20.149,27.245 4.19,22.888 3.256,6.939 3.256,6.939 -2.345,1.633 0,0"
         style="fill:#ffffff;fill-opacity:1;fill-rule:nonzero;stroke:none"
         id="path78"
         inkscape:connector-curvature="0" /></g><g
       id="g80"
       transform="translate(452.4873,475.9014)"><path
         d="m 0,0 c 0,0 -24.71,-10.733 -18.719,34.943 0,0 28.447,-5.241 21.461,-33.946 0,0 -0.494,16.225 -14.471,24.711 0,0 10.982,-13.479 11.729,-25.708"
         style="fill:#ffffff;fill-opacity:1;fill-rule:nonzero;stroke:none"
         id="path82"
         inkscape:connector-curvature="0" /></g><g
       id="g84"
       transform="translate(478.0879,613.0903)"><path
         d="M 0,0 C -1.306,-1.175 -2.92,-1.508 -3.605,-0.747 -4.289,0.015 -3.784,1.584 -2.476,2.759 -1.17,3.934 0.445,4.268 1.129,3.506 1.813,2.745 1.31,1.175 0,0 m -10.723,-0.26 c -1.602,-0.997 -3.43,-0.954 -4.085,0.097 -0.653,1.052 0.116,2.713 1.72,3.71 1.604,0.997 3.434,0.953 4.085,-0.099 0.656,-1.052 -0.116,-2.711 -1.72,-3.708 m -1.543,-11.76 c -1.067,0 -1.933,0.667 -1.933,1.49 0,0.822 0.866,1.489 1.933,1.489 1.071,0 1.936,-0.667 1.936,-1.489 0,-0.823 -0.865,-1.49 -1.936,-1.49 m -4.316,22.453 c -2.043,-1.657 -4.453,-2.073 -5.384,-0.925 -0.929,1.145 -0.025,3.419 2.019,5.076 2.043,1.657 4.453,2.07 5.384,0.924 0.927,-1.146 0.025,-3.416 -2.019,-5.075 m -14.719,2.72 c -1.296,-1.143 -3.005,-1.325 -3.815,-0.405 -0.812,0.92 -0.418,2.595 0.882,3.737 1.297,1.142 3.007,1.324 3.819,0.404 0.811,-0.921 0.418,-2.595 -0.886,-3.736 m 29.602,16.144 11.996,-29.52 -36.93,34.64 24.934,-5.12 z m 13.36,-30.848 -12.73,31.324 -0.277,0.231 -26.457,5.434 -0.339,-0.653 0.04,-0.037 -14.13,-20.094 34.091,-37.315 19.196,20.694 0.606,0.416 z"
         style="fill:#ffffff;fill-opacity:1;fill-rule:nonzero;stroke:none"
         id="path86"
         inkscape:connector-curvature="0" /></g><g
       id="g88"
       transform="translate(470.1777,639.457)"><path
         d="M 0,0 C -0.681,-0.468 -0.412,-2.045 0.604,-3.521 1.62,-4.999 2.995,-5.815 3.678,-5.347 4.358,-4.878 4.089,-3.301 3.074,-1.825 2.057,-0.348 0.682,0.469 0,0"
         style="fill:#ffffff;fill-opacity:1;fill-rule:nonzero;stroke:none"
         id="path90"
         inkscape:connector-curvature="0" /></g><g
       id="g92"
       transform="translate(393.5937,549.3047)"><path
         d="m 0,0 c 0,0 -10.495,16.69 -18.304,5.407 -5.782,-8.355 -18.925,-36.821 4.077,-40.435 6.708,-1.054 11.83,-1.492 23.628,13.396 C 13.063,-17.012 25.462,-3.661 0,0"
         style="fill:#ffffff;fill-opacity:1;fill-rule:nonzero;stroke:none"
         id="path94"
         inkscape:connector-curvature="0" /></g><g
       id="g96"
       transform="translate(397.832,549.2202)"><path
         d="m 0,0 c 0,0 8.102,4.099 11.412,-5.917 0,0 -2.478,5.73 -11.412,5.917"
         style="fill:#ffffff;fill-opacity:1;fill-rule:nonzero;stroke:none"
         id="path98"
         inkscape:connector-curvature="0" /></g><g
       id="g100"
       transform="translate(393.6665,551.5)"><path
         d="m 0,0 c 0,0 7.583,26.25 -6.732,18.854 0,0 -5.038,2.012 -0.581,3.162 6.146,1.586 15.746,1.99 9.032,-23.033 L 0.375,-1.708 0,0 Z"
         style="fill:#ffffff;fill-opacity:1;fill-rule:nonzero;stroke:none"
         id="path102"
         inkscape:connector-curvature="0" /></g><g
       id="g104"
       transform="translate(391.4707,553.7017)"><path
         d="m 0,0 c 0,0 -0.027,6.437 -9.533,5.673 0,0 6.327,-0.06 9.533,-5.673"
         style="fill:#ffffff;fill-opacity:1;fill-rule:nonzero;stroke:none"
         id="path106"
         inkscape:connector-curvature="0" /></g><g
       id="g108"
       transform="translate(386.915,434.5508)"><path
         d="m 0,0 c 0,0 -24.711,-10.733 -18.72,34.943 0,0 28.447,-5.241 21.46,-33.945 0,0 -0.494,16.224 -14.471,24.71 0,0 10.983,-13.478 11.731,-25.708"
         style="fill:#ffffff;fill-opacity:1;fill-rule:nonzero;stroke:none"
         id="path110"
         inkscape:connector-curvature="0" /></g></g></svg>